[
  {
    "country_name": "Guatemala",
    "img": "/flags/guatemala.png",
    "elections": [
      {
        "name": "Presidente Segunda Vuelta",
        "date": "2019/08/11",
        "is_playable": true,
        "shuffle": true,
        "questions_number": 8,
        "questions_url": "https://docs.google.com/spreadsheets/d/12EijyYFnFiqVIOk3qD2yZYw2bQpPaj3uZKrKgyG5iWY/export?format=csv&id=12EijyYFnFiqVIOk3qD2yZYw2bQpPaj3uZKrKgyG5iWY&gid=0",
        "candidates_url": "https://docs.google.com/spreadsheets/d/1TJCInsjP9FByYZLl8yy_mq4luzV8EDOrRtblXIwoROI/export?format=csv&id=1TJCInsjP9FByYZLl8yy_mq4luzV8EDOrRtblXIwoROI&gid=0"
      },
      {
        "name": "Presidente",
        "date": "2019/06/16",
        "is_playable": true,
        "shuffle": true,
        "questions_number": 8,
        "questions_url": "https://docs.google.com/spreadsheets/d/12EijyYFnFiqVIOk3qD2yZYw2bQpPaj3uZKrKgyG5iWY/export?format=csv&id=12EijyYFnFiqVIOk3qD2yZYw2bQpPaj3uZKrKgyG5iWY&gid=0",
        "candidates_url": "https://docs.google.com/spreadsheets/d/19nlY9Kw5toLmwxpGcjZ-Sk4DE56_upz4w4aahl31Xps/export?format=csv&id=19nlY9Kw5toLmwxpGcjZ-Sk4DE56_upz4w4aahl31Xps&gid=0"
      }
    ]
  },
  {
    "country_name": "Brasil",
    "img": "/flags/brasil.png",
    "elections": [
      {
        "name": "Presidente",
        "date": "2018/10/10",
        "is_playable": true,
        "shuffle": false,
        "questions_number": 8,
        "questions_url": "https://docs.google.com/spreadsheets/d/1o_S_ssdCGjQ3Ff5of8LCPS6yNlhUyboaE8S8jqEBCQQ/export?format=csv&id=1o_S_ssdCGjQ3Ff5of8LCPS6yNlhUyboaE8S8jqEBCQQ&gid=0",
        "candidates_url": "https://docs.google.com/spreadsheets/d/1Luc5Tx6s1RpiEVYn3EcagFL5ivri5OklZDR2iJl71E8/export?format=csv&id=1Luc5Tx6s1RpiEVYn3EcagFL5ivri5OklZDR2iJl71E8&gid=1158521923"
      }
    ]
  },
  {
    "country_name": "Colombia",
    "img": "/flags/colombia.png",
    "elections": [
      {
        "name": "Presidente Segunda Vuelta",
        "date": "2018/06/17",
        "is_playable": true,
        "questions_number": 10,
        "questions_url": "https://docs.google.com/spreadsheets/d/1o_S_ssdCGjQ3Ff5of8LCPS6yNlhUyboaE8S8jqEBCQQ/export?format=csv&id=1o_S_ssdCGjQ3Ff5of8LCPS6yNlhUyboaE8S8jqEBCQQ&gid=0",
        "candidates_url": "https://docs.google.com/spreadsheets/d/1mYpUohOcSQPYdDBVcPSmbUUFnwdR1UZsgZQCRp4IbsQ/export?format=csv&id=1mYpUohOcSQPYdDBVcPSmbUUFnwdR1UZsgZQCRp4IbsQ&gid=0"
      },
      {
        "name": "Presidente",
        "date": "2018/05/27",
        "is_playable": true,
        "questions_number": 8,
        "questions_url": "https://docs.google.com/spreadsheets/d/1o_S_ssdCGjQ3Ff5of8LCPS6yNlhUyboaE8S8jqEBCQQ/export?format=csv&id=1o_S_ssdCGjQ3Ff5of8LCPS6yNlhUyboaE8S8jqEBCQQ&gid=0",
        "candidates_url": "https://docs.google.com/spreadsheets/d/1fg7Vd3Ka5s6FTNkohyzH4bCEPTMeNyXno9WTOCnXjqU/export?format=csv&id=1fg7Vd3Ka5s6FTNkohyzH4bCEPTMeNyXno9WTOCnXjqU&gid=0"
      }
    ]
  },
  {
    "country_name": "Mexico",
    "img": "/flags/mexico.png",
    "elections": [
      {
        "name": "Presidente",
        "date": "2018/07/01",
        "is_playable": true,
        "questions_number": 8,
        "more_options": false,
        "questions_url": "https://docs.google.com/spreadsheets/d/1mU3L4DxPSRg4Qbclb1tgL6Sn-upWKG9qe3lhiPOSDLE/export?format=csv&id=1mU3L4DxPSRg4Qbclb1tgL6Sn-upWKG9qe3lhiPOSDLE&gid=0",
        "candidates_url": "https://docs.google.com/spreadsheets/d/1ibpFNT6IErSocDYNpcOYH9M5dt6rDIZThaGcNGU-Gwo/export?format=csv&id=1ibpFNT6IErSocDYNpcOYH9M5dt6rDIZThaGcNGU-Gwo&gid=0"
      }
    ]
  },
  {
    "country_name": "Argentina",
    "img": "/flags/argentina.png",
    "elections": [
      {
        "name": "Presidente",
        "date": "2019/08/21",
        "is_playable": false,
        "questions_number": 8,
        "questions_url": "https://docs.google.com/spreadsheets/d/1o_S_ssdCGjQ3Ff5of8LCPS6yNlhUyboaE8S8jqEBCQQ/export?format=csv&id=1o_S_ssdCGjQ3Ff5of8LCPS6yNlhUyboaE8S8jqEBCQQ&gid=0",
        "candidates_url": "https://docs.google.com/spreadsheets/d/1worWBlxVSM-JNwDHdyvoOx2ncHXhKeN50Qvuar_cIYI/export?format=csv&id=1worWBlxVSM-JNwDHdyvoOx2ncHXhKeN50Qvuar_cIYI&gid=0"
      }
    ]
  },
  {
    "country_name": "Argentina",
    "img": "/flags/argentina.png",
    "elections": [
      {
        "name": "2019",
        "date": "2019/08/21",
        "is_playable": true,
        "shuffle": false,
        "games": [ "fakenews" ],
        "hide_canditates": false,
        "fakes_url": "https://docs.google.com/spreadsheets/d/1o6KkXqBHvimWCCm3NV-c4e8qiSlhXmdWAYf7AfGjuAs/export?format=csv&id=1o_S_ssdCGjQ3Ff5of8LCPS6yNlhUyboaE8S8jqEBCQQ&gid=0",
        "questions_number": 8,
        "questions_url": "https://docs.google.com/spreadsheets/d/1o_S_ssdCGjQ3Ff5of8LCPS6yNlhUyboaE8S8jqEBCQQ/export?format=csv&id=1o_S_ssdCGjQ3Ff5of8LCPS6yNlhUyboaE8S8jqEBCQQ&gid=0",
        "candidates_url": "https://docs.google.com/spreadsheets/d/1DWFsvGKCOKmCya9vb8HOmLcIpCTkpnarynvM1zivGrs/export?format=csv"
      }
    ]
  }
]
